# WaveFront *.obj file (generated by Autodesk ATF)

mtllib esagono2.mtl

g Solido1

v -74.999847 0.000000 0.150287
v -74.999847 15.000000 0.150287
v -37.630076 0.000000 -64.876633
v -37.630076 15.000000 -64.876633
v -37.369771 0.000000 65.026917
v -37.369771 15.000000 65.026917
v -5.000000 0.000000 0.000000
v -5.000000 15.000000 0.000000
v -4.619398 0.000000 -1.913417
v -4.619398 0.000000 1.913417
v -4.619398 15.000000 -1.913417
v -4.619398 15.000000 1.913417
v -3.535534 0.000000 -3.535534
v -3.535534 0.000000 3.535534
v -3.535534 15.000000 -3.535534
v -3.535534 15.000000 3.535534
v -1.913417 0.000000 -4.619398
v -1.913417 0.000000 4.619398
v -1.913417 15.000000 -4.619398
v -1.913417 15.000000 4.619398
v 0.000000 0.000000 -5.000000
v 0.000000 0.000000 5.000000
v 0.000000 15.000000 -5.000000
v 0.000000 15.000000 5.000000
v 1.913417 0.000000 -4.619398
v 1.913417 0.000000 4.619398
v 1.913417 15.000000 -4.619398
v 1.913417 15.000000 4.619398
v 3.535534 0.000000 -3.535534
v 3.535534 0.000000 3.535534
v 3.535534 15.000000 -3.535534
v 3.535534 15.000000 3.535534
v 4.619398 0.000000 -1.913417
v 4.619398 0.000000 1.913417
v 4.619398 15.000000 -1.913417
v 4.619398 15.000000 1.913417
v 5.000000 0.000000 0.000000
v 5.000000 15.000000 0.000000
v 37.369771 0.000000 -65.026917
v 37.369771 15.000000 -65.026917
v 37.630076 0.000000 64.876633
v 37.630076 15.000000 64.876633
v 74.999847 0.000000 -0.150287
v 74.999847 15.000000 -0.150287
vt 0.000000 0.000000 0.000000
vt 7.500000 0.000000 0.000000
vt 7.500000 1.500000 0.000000
vt 0.000000 1.500000 0.000000
vt 0.000000 0.000000 0.000000
vt 7.500000 0.000000 0.000000
vt 7.500000 1.500000 0.000000
vt 0.000000 1.500000 0.000000
vt 0.000000 0.000000 0.000000
vt 7.500000 0.000000 0.000000
vt 7.500000 1.500000 0.000000
vt 0.000000 1.500000 0.000000
vt 0.000000 0.000000 0.000000
vt 7.500000 0.000000 0.000000
vt 7.500000 1.500000 0.000000
vt 0.000000 1.500000 0.000000
vt 0.000000 0.000000 0.000000
vt 7.500000 0.000000 0.000000
vt 7.500000 1.500000 0.000000
vt 0.000000 1.500000 0.000000
vt 0.000000 0.000000 0.000000
vt 7.500000 0.000000 0.000000
vt 7.500000 1.500000 0.000000
vt 0.000000 1.500000 0.000000
vt 0.000000 0.500000 0.000000
vt 0.191342 0.461940 0.000000
vt 0.353553 0.353553 0.000000
vt 0.461940 0.191342 0.000000
vt 0.500000 0.000000 0.000000
vt 0.461940 -0.191342 0.000000
vt 0.353553 -0.353553 0.000000
vt 0.191342 -0.461940 0.000000
vt 0.000000 -0.500000 0.000000
vt -0.191342 -0.461940 0.000000
vt -0.353553 -0.353553 0.000000
vt -0.461940 -0.191342 0.000000
vt -0.500000 0.000000 0.000000
vt -0.461940 0.191342 0.000000
vt -0.353553 0.353553 0.000000
vt -0.191342 0.461940 0.000000
vt 0.015029 -7.499985 0.000000
vt 6.502692 -3.736977 0.000000
vt 6.487663 3.763008 0.000000
vt -0.015029 7.499985 0.000000
vt -6.502692 3.736977 0.000000
vt -6.487663 -3.763008 0.000000
vt 1.500000 0.000000 0.000000
vt 1.500000 0.196350 0.000000
vt 1.500000 0.392699 0.000000
vt 1.500000 0.589049 0.000000
vt 1.500000 0.785398 0.000000
vt 1.500000 0.981748 0.000000
vt 1.500000 1.178097 0.000000
vt 1.500000 1.374447 0.000000
vt 1.500000 -1.570796 0.000000
vt 1.500000 -1.374447 0.000000
vt 1.500000 -1.178097 0.000000
vt 1.500000 -0.981748 0.000000
vt 1.500000 -0.785398 0.000000
vt 1.500000 -0.589049 0.000000
vt 1.500000 -0.392699 0.000000
vt 1.500000 -0.196350 0.000000
vt 0.000000 0.000000 0.000000
vt 0.000000 -0.196350 0.000000
vt 0.000000 -0.392699 0.000000
vt 0.000000 -0.589049 0.000000
vt 0.000000 -0.785398 0.000000
vt 0.000000 -0.981748 0.000000
vt 0.000000 -1.178097 0.000000
vt 0.000000 -1.374447 0.000000
vt 0.000000 1.570796 0.000000
vt 0.000000 1.374447 0.000000
vt 0.000000 1.178097 0.000000
vt 0.000000 0.981748 0.000000
vt 0.000000 0.785398 0.000000
vt 0.000000 0.589049 0.000000
vt 0.000000 0.392699 0.000000
vt 0.000000 0.196350 0.000000
vt 0.000000 -1.570796 0.000000
vt 1.500000 1.570796 0.000000
vt -0.000000 0.500000 0.000000
vt 0.191342 0.461940 0.000000
vt 0.353553 0.353553 0.000000
vt 0.461940 0.191342 0.000000
vt 0.500000 0.000000 0.000000
vt 0.461940 -0.191342 0.000000
vt 0.353553 -0.353553 0.000000
vt 0.191342 -0.461940 0.000000
vt -0.000000 -0.500000 0.000000
vt -0.191342 -0.461940 0.000000
vt -0.353553 -0.353553 0.000000
vt -0.461940 -0.191342 0.000000
vt -0.500000 0.000000 0.000000
vt -0.461940 0.191342 0.000000
vt -0.353553 0.353553 0.000000
vt -0.191342 0.461940 0.000000
vt -6.502692 -3.736977 0.000000
vt -0.015029 -7.499985 0.000000
vt 6.487663 -3.763008 0.000000
vt 6.502692 3.736977 0.000000
vt 0.015029 7.499985 0.000000
vt -6.487663 3.763008 0.000000
vn -0.086703 0.000000 -0.049826
vn -0.086703 0.000000 -0.049826
vn -0.086703 0.000000 -0.049826
vn -0.086703 0.000000 -0.049826
vn -0.000200 0.000000 -0.100000
vn -0.000200 0.000000 -0.100000
vn -0.000200 0.000000 -0.100000
vn -0.000200 0.000000 -0.100000
vn 0.086502 0.000000 -0.050173
vn 0.086502 0.000000 -0.050173
vn 0.086502 0.000000 -0.050173
vn 0.086502 0.000000 -0.050173
vn 0.086703 0.000000 0.049826
vn 0.086703 0.000000 0.049826
vn 0.086703 0.000000 0.049826
vn 0.086703 0.000000 0.049826
vn 0.000200 0.000000 0.100000
vn 0.000200 0.000000 0.100000
vn 0.000200 0.000000 0.100000
vn 0.000200 0.000000 0.100000
vn -0.086502 0.000000 0.050173
vn -0.086502 0.000000 0.050173
vn -0.086502 0.000000 0.050173
vn -0.086502 0.000000 0.050173
vn 0.000000 0.100000 0.000000
vn 0.000000 0.100000 0.000000
vn 0.000000 0.100000 0.000000
vn 0.000000 0.100000 0.000000
vn 0.000000 0.100000 0.000000
vn 0.000000 0.100000 0.000000
vn 0.000000 0.100000 0.000000
vn 0.000000 0.100000 0.000000
vn 0.000000 0.100000 0.000000
vn 0.000000 0.100000 0.000000
vn 0.000000 0.100000 0.000000
vn 0.000000 0.100000 0.000000
vn 0.000000 0.100000 0.000000
vn 0.000000 0.100000 0.000000
vn 0.000000 0.100000 0.000000
vn 0.000000 0.100000 0.000000
vn 0.000000 0.100000 0.000000
vn 0.000000 0.100000 0.000000
vn 0.000000 0.100000 0.000000
vn 0.000000 0.100000 0.000000
vn 0.000000 0.100000 0.000000
vn 0.000000 0.100000 0.000000
vn -0.100000 0.000000 0.000000
vn -0.092388 0.000000 -0.038268
vn -0.070711 0.000000 -0.070711
vn -0.038268 0.000000 -0.092388
vn 0.000000 0.000000 -0.100000
vn 0.038268 0.000000 -0.092388
vn 0.070711 0.000000 -0.070711
vn 0.092388 0.000000 -0.038268
vn 0.100000 0.000000 0.000000
vn 0.092388 0.000000 0.038268
vn 0.070711 0.000000 0.070711
vn 0.038268 0.000000 0.092388
vn 0.000000 0.000000 0.100000
vn -0.038268 0.000000 0.092388
vn -0.070711 0.000000 0.070711
vn -0.092388 0.000000 0.038268
vn -0.100000 0.000000 0.000000
vn -0.092388 0.000000 0.038268
vn -0.070711 0.000000 0.070711
vn -0.038268 0.000000 0.092388
vn 0.000000 0.000000 0.100000
vn 0.038268 0.000000 0.092388
vn 0.070711 0.000000 0.070711
vn 0.092388 0.000000 0.038268
vn 0.100000 0.000000 0.000000
vn 0.092388 0.000000 -0.038268
vn 0.070711 0.000000 -0.070711
vn 0.038268 0.000000 -0.092388
vn 0.000000 0.000000 -0.100000
vn -0.038268 0.000000 -0.092388
vn -0.070711 0.000000 -0.070711
vn -0.092388 0.000000 -0.038268
vn 0.100000 0.000000 0.000000
vn 0.100000 0.000000 0.000000
vn 0.000000 -0.100000 0.000000
vn 0.000000 -0.100000 0.000000
vn 0.000000 -0.100000 0.000000
vn 0.000000 -0.100000 0.000000
vn 0.000000 -0.100000 0.000000
vn 0.000000 -0.100000 0.000000
vn 0.000000 -0.100000 0.000000
vn 0.000000 -0.100000 0.000000
vn 0.000000 -0.100000 0.000000
vn 0.000000 -0.100000 0.000000
vn 0.000000 -0.100000 0.000000
vn 0.000000 -0.100000 0.000000
vn 0.000000 -0.100000 0.000000
vn 0.000000 -0.100000 0.000000
vn 0.000000 -0.100000 0.000000
vn 0.000000 -0.100000 0.000000
vn 0.000000 -0.100000 0.000000
vn 0.000000 -0.100000 0.000000
vn 0.000000 -0.100000 0.000000
vn 0.000000 -0.100000 0.000000
vn 0.000000 -0.100000 0.000000
vn 0.000000 -0.100000 0.000000
usemtl 191,191,191
f 3/1/1 1/2/2 4/4/4
f 4/4/4 1/2/2 2/3/3
f 39/5/5 3/6/6 40/8/8
f 40/8/8 3/6/6 4/7/7
f 43/9/9 39/10/10 44/12/12
f 44/12/12 39/10/10 40/11/11
f 41/13/13 43/14/14 42/16/16
f 42/16/16 43/14/14 44/15/15
f 5/17/17 41/18/18 6/20/20
f 6/20/20 41/18/18 42/19/19
f 1/21/21 5/22/22 2/24/24
f 2/24/24 5/22/22 6/23/23
f 35/40/40 38/25/25 44/44/44
f 44/44/44 38/25/25 36/26/26
f 44/44/44 36/26/26 32/27/27
f 44/44/44 32/27/27 42/43/43
f 42/43/43 32/27/27 28/28/28
f 42/43/43 28/28/28 24/29/29
f 42/43/43 24/29/29 6/42/42
f 6/42/42 24/29/29 20/30/30
f 6/42/42 20/30/30 16/31/31
f 6/42/42 16/31/31 2/41/41
f 2/41/41 16/31/31 12/32/32
f 2/41/41 12/32/32 8/33/33
f 8/33/33 11/34/34 2/41/41
f 2/41/41 11/34/34 15/35/35
f 2/41/41 15/35/35 4/46/46
f 4/46/46 15/35/35 19/36/36
f 4/46/46 19/36/36 23/37/37
f 4/46/46 23/37/37 40/45/45
f 40/45/45 23/37/37 27/38/38
f 40/45/45 27/38/38 31/39/39
f 40/45/45 31/39/39 44/44/44
f 44/44/44 31/39/39 35/40/40
f 34/48/48 36/78/78 37/47/47
f 37/47/47 36/78/78 38/63/63
f 37/47/47 38/63/63 33/62/62
f 33/62/62 38/63/63 35/64/64
f 33/62/62 35/64/64 29/61/61
f 29/61/61 35/64/64 31/65/65
f 29/61/61 31/65/65 25/60/60
f 25/60/60 31/65/65 27/66/66
f 25/60/60 27/66/66 21/59/59
f 21/59/59 27/66/66 23/67/67
f 21/59/59 23/67/67 17/58/58
f 17/58/58 23/67/67 19/68/68
f 17/58/58 19/68/68 13/57/57
f 13/57/57 19/68/68 15/69/69
f 13/57/57 15/69/69 9/56/56
f 9/56/56 15/69/69 11/70/70
f 9/56/56 11/70/70 7/55/55
f 7/55/55 11/70/70 8/79/79
f 7/80/80 8/71/71 10/54/54
f 10/54/54 8/71/71 12/72/72
f 10/54/54 12/72/72 14/53/53
f 14/53/53 12/72/72 16/73/73
f 14/53/53 16/73/73 18/52/52
f 18/52/52 16/73/73 20/74/74
f 18/52/52 20/74/74 22/51/51
f 22/51/51 20/74/74 24/75/75
f 22/51/51 24/75/75 26/50/50
f 26/50/50 24/75/75 28/76/76
f 26/50/50 28/76/76 30/49/49
f 30/49/49 28/76/76 32/77/77
f 30/49/49 32/77/77 34/48/48
f 34/48/48 32/77/77 36/78/78
f 34/96/96 37/81/81 43/101/101
f 43/101/101 37/81/81 33/82/82
f 43/101/101 33/82/82 29/83/83
f 43/101/101 29/83/83 39/100/100
f 39/100/100 29/83/83 25/84/84
f 39/100/100 25/84/84 21/85/85
f 39/100/100 21/85/85 3/99/99
f 3/99/99 21/85/85 17/86/86
f 3/99/99 17/86/86 13/87/87
f 3/99/99 13/87/87 1/98/98
f 1/98/98 13/87/87 9/88/88
f 1/98/98 9/88/88 7/89/89
f 7/89/89 10/90/90 1/98/98
f 1/98/98 10/90/90 14/91/91
f 1/98/98 14/91/91 5/97/97
f 5/97/97 14/91/91 18/92/92
f 5/97/97 18/92/92 22/93/93
f 5/97/97 22/93/93 41/102/102
f 41/102/102 22/93/93 26/94/94
f 41/102/102 26/94/94 30/95/95
f 41/102/102 30/95/95 43/101/101
f 43/101/101 30/95/95 34/96/96

# 44 vertices
# 102 texture params
# 102 normals
# 88 facets

# 1 groups
