# WaveFront *.obj file (generated by Autodesk ATF)

mtllib dispenser piccolo.mtl

g Solido1

v 0.000000 -0.150000 0.000000
v 0.000000 -0.150000 0.022000
v 0.000000 0.000000 0.000000
v 0.000000 0.000000 0.022000
v 0.022000 -0.128000 0.000000
v 0.022000 -0.128000 0.022000
v 0.022000 -0.022000 0.000000
v 0.022000 -0.022000 0.022000
v 0.080000 -0.128000 0.000000
v 0.080000 -0.128000 0.022000
v 0.080000 -0.022000 0.000000
v 0.080000 -0.022000 0.022000
v 0.102000 -0.150000 0.000000
v 0.102000 -0.150000 0.022000
v 0.102000 0.000000 0.000000
v 0.102000 0.000000 0.022000
vt 0.000000 0.000000 0.000000
vt 2.283465 0.000000 0.000000
vt 2.283465 0.866142 0.000000
vt 0.000000 0.866142 0.000000
vt 0.000000 0.000000 0.000000
vt 4.173228 0.000000 0.000000
vt 4.173228 0.866142 0.000000
vt 0.000000 0.866142 0.000000
vt 0.000000 0.000000 0.000000
vt 2.283465 0.000000 0.000000
vt 2.283465 0.866142 0.000000
vt 0.000000 0.866142 0.000000
vt 0.000000 0.000000 0.000000
vt 4.173228 0.000000 0.000000
vt 4.173228 0.866142 0.000000
vt 0.000000 0.866142 0.000000
vt 0.000000 0.000000 0.000000
vt 5.905512 0.000000 0.000000
vt 5.905512 0.866142 0.000000
vt 0.000000 0.866142 0.000000
vt 0.000000 0.000000 0.000000
vt 4.015748 0.000000 0.000000
vt 4.015748 0.866142 0.000000
vt 0.000000 0.866142 0.000000
vt 0.000000 0.000000 0.000000
vt 5.905512 0.000000 0.000000
vt 5.905512 0.866142 0.000000
vt 0.000000 0.866142 0.000000
vt 0.000000 0.000000 0.000000
vt 4.015748 0.000000 0.000000
vt 4.015748 0.866142 0.000000
vt 0.000000 0.866142 0.000000
vt -2.007874 -2.952756 0.000000
vt 2.007874 -2.952756 0.000000
vt 2.007874 2.952756 0.000000
vt -2.007874 2.952756 0.000000
vt 1.141732 2.086614 0.000000
vt 1.141732 -2.086614 0.000000
vt -1.141732 -2.086614 0.000000
vt -1.141732 2.086614 0.000000
vt -2.007874 -2.952756 0.000000
vt 2.007874 -2.952756 0.000000
vt 2.007874 2.952756 0.000000
vt -2.007874 2.952756 0.000000
vt -1.141732 -2.086614 0.000000
vt -1.141732 2.086614 0.000000
vt 1.141732 2.086614 0.000000
vt 1.141732 -2.086614 0.000000
vn 0.000000 -100.000000 0.000000
vn 0.000000 -100.000000 0.000000
vn 0.000000 -100.000000 0.000000
vn 0.000000 -100.000000 0.000000
vn 100.000000 0.000000 0.000000
vn 100.000000 0.000000 0.000000
vn 100.000000 0.000000 0.000000
vn 100.000000 0.000000 0.000000
vn 0.000000 100.000000 0.000000
vn 0.000000 100.000000 0.000000
vn 0.000000 100.000000 0.000000
vn 0.000000 100.000000 0.000000
vn -100.000000 0.000000 0.000000
vn -100.000000 0.000000 0.000000
vn -100.000000 0.000000 0.000000
vn -100.000000 0.000000 0.000000
vn -100.000000 0.000000 0.000000
vn -100.000000 0.000000 0.000000
vn -100.000000 0.000000 0.000000
vn -100.000000 0.000000 0.000000
vn 0.000000 100.000000 0.000000
vn 0.000000 100.000000 0.000000
vn 0.000000 100.000000 0.000000
vn 0.000000 100.000000 0.000000
vn 100.000000 0.000000 0.000000
vn 100.000000 0.000000 0.000000
vn 100.000000 0.000000 0.000000
vn 100.000000 0.000000 0.000000
vn 0.000000 -100.000000 0.000000
vn 0.000000 -100.000000 0.000000
vn 0.000000 -100.000000 0.000000
vn 0.000000 -100.000000 0.000000
vn 0.000000 0.000000 100.000000
vn 0.000000 0.000000 100.000000
vn 0.000000 0.000000 100.000000
vn 0.000000 0.000000 100.000000
vn 0.000000 0.000000 100.000000
vn 0.000000 0.000000 100.000000
vn 0.000000 0.000000 100.000000
vn 0.000000 0.000000 100.000000
vn 0.000000 0.000000 -100.000000
vn 0.000000 0.000000 -100.000000
vn 0.000000 0.000000 -100.000000
vn 0.000000 0.000000 -100.000000
vn 0.000000 0.000000 -100.000000
vn 0.000000 0.000000 -100.000000
vn 0.000000 0.000000 -100.000000
vn 0.000000 0.000000 -100.000000
usemtl 255,255,255
f 7/1/1 11/2/2 8/4/4
f 8/4/4 11/2/2 12/3/3
f 5/5/5 7/6/6 6/8/8
f 6/8/8 7/6/6 8/7/7
f 9/9/9 5/10/10 10/12/12
f 10/12/12 5/10/10 6/11/11
f 11/13/13 9/14/14 12/16/16
f 12/16/16 9/14/14 10/15/15
f 3/17/17 1/18/18 4/20/20
f 4/20/20 1/18/18 2/19/19
f 15/21/21 3/22/22 16/24/24
f 16/24/24 3/22/22 4/23/23
f 13/25/25 15/26/26 14/28/28
f 14/28/28 15/26/26 16/27/27
f 1/29/29 13/30/30 2/32/32
f 2/32/32 13/30/30 14/31/31
f 14/34/34 6/39/39 2/33/33
f 2/33/33 6/39/39 8/40/40
f 2/33/33 8/40/40 4/36/36
f 4/36/36 8/40/40 12/37/37
f 4/36/36 12/37/37 16/35/35
f 16/35/35 12/37/37 14/34/34
f 14/34/34 12/37/37 10/38/38
f 14/34/34 10/38/38 6/39/39
f 1/42/42 9/45/45 13/41/41
f 13/41/41 9/45/45 11/46/46
f 13/41/41 11/46/46 15/44/44
f 15/44/44 11/46/46 7/47/47
f 15/44/44 7/47/47 3/43/43
f 3/43/43 7/47/47 1/42/42
f 1/42/42 7/47/47 5/48/48
f 1/42/42 5/48/48 9/45/45
# 16 vertices
# 48 texture params
# 48 normals
# 32 facets

# 1 groups
