# WaveFront *.obj file (generated by Autodesk ATF)

mtllib esagono2.mtl

g Solido1

v -0.075000 0.000000 0.000150
v -0.075000 0.015000 0.000150
v -0.037630 0.000000 -0.064877
v -0.037630 0.015000 -0.064877
v -0.037370 0.000000 0.065027
v -0.037370 0.015000 0.065027
v -0.005000 0.000000 0.000000
v -0.005000 0.010000 0.000000
v -0.004619 0.000000 -0.001913
v -0.004619 0.000000 0.001913
v -0.004619 0.010000 -0.001913
v -0.004619 0.010000 0.001913
v -0.003536 0.000000 -0.003536
v -0.003536 0.000000 0.003536
v -0.003536 0.010000 -0.003536
v -0.003536 0.010000 0.003536
v -0.001913 0.000000 -0.004619
v -0.001913 0.000000 0.004619
v -0.001913 0.010000 -0.004619
v -0.001913 0.010000 0.004619
v 0.000000 0.000000 -0.005000
v 0.000000 0.000000 0.005000
v 0.000000 0.010000 -0.005000
v 0.000000 0.010000 0.005000
v 0.001913 0.000000 -0.004619
v 0.001913 0.000000 0.004619
v 0.001913 0.010000 -0.004619
v 0.001913 0.010000 0.004619
v 0.003536 0.000000 -0.003536
v 0.003536 0.000000 0.003536
v 0.003536 0.010000 -0.003536
v 0.003536 0.010000 0.003536
v 0.004619 0.000000 -0.001913
v 0.004619 0.000000 0.001913
v 0.004619 0.010000 -0.001913
v 0.004619 0.010000 0.001913
v 0.005000 0.000000 0.000000
v 0.005000 0.010000 0.000000
v 0.037370 0.000000 -0.065027
v 0.037370 0.015000 -0.065027
v 0.037630 0.000000 0.064877
v 0.037630 0.015000 0.064877
v 0.075000 0.000000 -0.000150
v 0.075000 0.015000 -0.000150
vt 0.393701 0.000000 0.000000
vt 0.393701 0.077303 0.000000
vt 0.393701 0.154606 0.000000
vt 0.393701 0.231909 0.000000
vt 0.393701 0.309212 0.000000
vt 0.393701 0.386515 0.000000
vt 0.393701 0.463818 0.000000
vt 0.393701 0.541121 0.000000
vt 0.393701 -0.618424 0.000000
vt 0.393701 -0.541121 0.000000
vt 0.393701 -0.463818 0.000000
vt 0.393701 -0.386515 0.000000
vt 0.393701 -0.309212 0.000000
vt 0.393701 -0.231909 0.000000
vt 0.393701 -0.154606 0.000000
vt 0.393701 -0.077303 0.000000
vt 0.000000 0.000000 0.000000
vt 0.000000 -0.077303 0.000000
vt 0.000000 -0.154606 0.000000
vt 0.000000 -0.231909 0.000000
vt 0.000000 -0.309212 0.000000
vt 0.000000 -0.386515 0.000000
vt 0.000000 -0.463818 0.000000
vt 0.000000 -0.541121 0.000000
vt 0.000000 0.618424 0.000000
vt 0.000000 0.541121 0.000000
vt 0.000000 0.463818 0.000000
vt 0.000000 0.386515 0.000000
vt 0.000000 0.309212 0.000000
vt 0.000000 0.231909 0.000000
vt 0.000000 0.154606 0.000000
vt 0.000000 0.077303 0.000000
vt 0.000000 -0.618424 0.000000
vt 0.393701 0.618424 0.000000
vt 0.000000 0.196850 0.000000
vt -0.075331 0.181866 0.000000
vt -0.139194 0.139194 0.000000
vt -0.181866 0.075331 0.000000
vt -0.196850 0.000000 0.000000
vt -0.181866 -0.075331 0.000000
vt -0.139194 -0.139194 0.000000
vt -0.075331 -0.181866 0.000000
vt 0.000000 -0.196850 0.000000
vt 0.075331 -0.181866 0.000000
vt 0.139194 -0.139194 0.000000
vt 0.181866 -0.075331 0.000000
vt 0.196850 0.000000 0.000000
vt 0.181866 0.075331 0.000000
vt 0.139194 0.139194 0.000000
vt 0.075331 0.181866 0.000000
vt 0.000000 0.000000 0.000000
vt 2.952756 0.000000 0.000000
vt 2.952756 0.590551 0.000000
vt 0.000000 0.590551 0.000000
vt 0.000000 0.000000 0.000000
vt 2.952756 0.000000 0.000000
vt 2.952756 0.590551 0.000000
vt 0.000000 0.590551 0.000000
vt 0.000000 0.000000 0.000000
vt 2.952756 0.000000 0.000000
vt 2.952756 0.590551 0.000000
vt 0.000000 0.590551 0.000000
vt 0.000000 0.000000 0.000000
vt 2.952756 0.000000 0.000000
vt 2.952756 0.590551 0.000000
vt 0.000000 0.590551 0.000000
vt 0.000000 0.000000 0.000000
vt 2.952756 0.000000 0.000000
vt 2.952756 0.590551 0.000000
vt 0.000000 0.590551 0.000000
vt 0.000000 0.000000 0.000000
vt 2.952756 0.000000 0.000000
vt 2.952756 0.590551 0.000000
vt 0.000000 0.590551 0.000000
vt 0.005917 -2.952750 0.000000
vt 2.560115 -1.471251 0.000000
vt 2.554198 1.481499 0.000000
vt -0.005917 2.952750 0.000000
vt -2.560115 1.471251 0.000000
vt -2.554198 -1.481499 0.000000
vt -0.000000 0.196850 0.000000
vt 0.075331 0.181866 0.000000
vt 0.139194 0.139194 0.000000
vt 0.181866 0.075331 0.000000
vt 0.196850 0.000000 0.000000
vt 0.181866 -0.075331 0.000000
vt 0.139194 -0.139194 0.000000
vt 0.075331 -0.181866 0.000000
vt -0.000000 -0.196850 0.000000
vt -0.075331 -0.181866 0.000000
vt -0.139194 -0.139194 0.000000
vt -0.181866 -0.075331 0.000000
vt -0.196850 0.000000 0.000000
vt -0.181866 0.075331 0.000000
vt -0.139194 0.139194 0.000000
vt -0.075331 0.181866 0.000000
vt -2.560115 -1.471251 0.000000
vt -0.005917 -2.952750 0.000000
vt 2.554198 -1.481499 0.000000
vt 2.560115 1.471251 0.000000
vt 0.005917 2.952750 0.000000
vt -2.554198 1.481499 0.000000
vn -100.000000 0.000000 0.000000
vn -92.387950 0.000000 38.268343
vn -70.710677 0.000000 70.710677
vn -38.268343 0.000000 92.387950
vn 0.000000 0.000000 100.000000
vn 38.268343 0.000000 92.387950
vn 70.710677 0.000000 70.710677
vn 92.387950 0.000000 38.268343
vn 100.000000 0.000000 0.000000
vn 92.387950 0.000000 -38.268343
vn 70.710677 0.000000 -70.710677
vn 38.268343 0.000000 -92.387950
vn 0.000000 0.000000 -100.000000
vn -38.268343 0.000000 -92.387950
vn -70.710677 0.000000 -70.710677
vn -92.387950 0.000000 -38.268343
vn -100.000000 0.000000 0.000000
vn -92.387950 0.000000 -38.268343
vn -70.710677 0.000000 -70.710677
vn -38.268343 0.000000 -92.387950
vn 0.000000 0.000000 -100.000000
vn 38.268343 0.000000 -92.387950
vn 70.710677 0.000000 -70.710677
vn 92.387950 0.000000 -38.268343
vn 100.000000 0.000000 0.000000
vn 92.387950 0.000000 38.268343
vn 70.710677 0.000000 70.710677
vn 38.268343 0.000000 92.387950
vn 0.000000 0.000000 100.000000
vn -38.268343 0.000000 92.387950
vn -70.710677 0.000000 70.710677
vn -92.387950 0.000000 38.268343
vn 100.000000 0.000000 0.000000
vn 100.000000 0.000000 0.000000
vn 0.000000 -100.000000 0.000000
vn 0.000000 -100.000000 0.000000
vn 0.000000 -100.000000 0.000000
vn 0.000000 -100.000000 0.000000
vn 0.000000 -100.000000 0.000000
vn 0.000000 -100.000000 0.000000
vn 0.000000 -100.000000 0.000000
vn 0.000000 -100.000000 0.000000
vn 0.000000 -100.000000 0.000000
vn 0.000000 -100.000000 0.000000
vn 0.000000 -100.000000 0.000000
vn 0.000000 -100.000000 0.000000
vn 0.000000 -100.000000 0.000000
vn 0.000000 -100.000000 0.000000
vn 0.000000 -100.000000 0.000000
vn 0.000000 -100.000000 0.000000
vn -86.702555 0.000000 -49.826363
vn -86.702555 0.000000 -49.826363
vn -86.702555 0.000000 -49.826363
vn -86.702555 0.000000 -49.826363
vn -0.200383 0.000000 -99.999797
vn -0.200383 0.000000 -99.999797
vn -0.200383 0.000000 -99.999797
vn -0.200383 0.000000 -99.999797
vn 86.502177 0.000000 -50.173438
vn 86.502177 0.000000 -50.173438
vn 86.502177 0.000000 -50.173438
vn 86.502177 0.000000 -50.173438
vn 86.702555 0.000000 49.826363
vn 86.702555 0.000000 49.826363
vn 86.702555 0.000000 49.826363
vn 86.702555 0.000000 49.826363
vn 0.200383 0.000000 99.999797
vn 0.200383 0.000000 99.999797
vn 0.200383 0.000000 99.999797
vn 0.200383 0.000000 99.999797
vn -86.502177 0.000000 50.173438
vn -86.502177 0.000000 50.173438
vn -86.502177 0.000000 50.173438
vn -86.502177 0.000000 50.173438
vn 0.000000 100.000000 0.000000
vn 0.000000 100.000000 0.000000
vn 0.000000 100.000000 0.000000
vn 0.000000 100.000000 0.000000
vn 0.000000 100.000000 0.000000
vn 0.000000 100.000000 0.000000
vn 0.000000 -100.000000 0.000000
vn 0.000000 -100.000000 0.000000
vn 0.000000 -100.000000 0.000000
vn 0.000000 -100.000000 0.000000
vn 0.000000 -100.000000 0.000000
vn 0.000000 -100.000000 0.000000
vn 0.000000 -100.000000 0.000000
vn 0.000000 -100.000000 0.000000
vn 0.000000 -100.000000 0.000000
vn 0.000000 -100.000000 0.000000
vn 0.000000 -100.000000 0.000000
vn 0.000000 -100.000000 0.000000
vn 0.000000 -100.000000 0.000000
vn 0.000000 -100.000000 0.000000
vn 0.000000 -100.000000 0.000000
vn 0.000000 -100.000000 0.000000
vn 0.000000 -100.000000 0.000000
vn 0.000000 -100.000000 0.000000
vn 0.000000 -100.000000 0.000000
vn 0.000000 -100.000000 0.000000
vn 0.000000 -100.000000 0.000000
vn 0.000000 -100.000000 0.000000
usemtl 255,255,255
f 35/2/2 33/32/32 38/1/1
f 38/1/1 33/32/32 37/17/17
f 38/1/1 37/17/17 36/16/16
f 36/16/16 37/17/17 34/18/18
f 36/16/16 34/18/18 32/15/15
f 32/15/15 34/18/18 30/19/19
f 32/15/15 30/19/19 28/14/14
f 28/14/14 30/19/19 26/20/20
f 28/14/14 26/20/20 24/13/13
f 24/13/13 26/20/20 22/21/21
f 24/13/13 22/21/21 20/12/12
f 20/12/12 22/21/21 18/22/22
f 20/12/12 18/22/22 16/11/11
f 16/11/11 18/22/22 14/23/23
f 16/11/11 14/23/23 12/10/10
f 12/10/10 14/23/23 10/24/24
f 12/10/10 10/24/24 8/9/9
f 8/9/9 10/24/24 7/33/33
f 8/34/34 7/25/25 11/8/8
f 11/8/8 7/25/25 9/26/26
f 11/8/8 9/26/26 15/7/7
f 15/7/7 9/26/26 13/27/27
f 15/7/7 13/27/27 19/6/6
f 19/6/6 13/27/27 17/28/28
f 19/6/6 17/28/28 23/5/5
f 23/5/5 17/28/28 21/29/29
f 23/5/5 21/29/29 27/4/4
f 27/4/4 21/29/29 25/30/30
f 27/4/4 25/30/30 31/3/3
f 31/3/3 25/30/30 29/31/31
f 31/3/3 29/31/31 35/2/2
f 35/2/2 29/31/31 33/32/32
f 38/35/35 36/36/36 35/50/50
f 35/50/50 36/36/36 31/49/49
f 31/49/49 36/36/36 32/37/37
f 31/49/49 32/37/37 27/48/48
f 27/48/48 32/37/37 28/38/38
f 27/48/48 28/38/38 23/47/47
f 23/47/47 28/38/38 24/39/39
f 23/47/47 24/39/39 19/46/46
f 19/46/46 24/39/39 20/40/40
f 19/46/46 20/40/40 15/45/45
f 15/45/45 20/40/40 16/41/41
f 15/45/45 16/41/41 11/44/44
f 11/44/44 16/41/41 12/42/42
f 11/44/44 12/42/42 8/43/43
f 3/51/51 1/52/52 4/54/54
f 4/54/54 1/52/52 2/53/53
f 39/55/55 3/56/56 40/58/58
f 40/58/58 3/56/56 4/57/57
f 43/59/59 39/60/60 44/62/62
f 44/62/62 39/60/60 40/61/61
f 41/63/63 43/64/64 42/66/66
f 42/66/66 43/64/64 44/65/65
f 5/67/67 41/68/68 6/70/70
f 6/70/70 41/68/68 42/69/69
f 1/71/71 5/72/72 2/74/74
f 2/74/74 5/72/72 6/73/73
f 6/76/76 42/77/77 2/75/75
f 2/75/75 42/77/77 44/78/78
f 2/75/75 44/78/78 4/80/80
f 4/80/80 44/78/78 40/79/79
f 34/96/96 37/81/81 43/101/101
f 43/101/101 37/81/81 33/82/82
f 43/101/101 33/82/82 29/83/83
f 43/101/101 29/83/83 39/100/100
f 39/100/100 29/83/83 25/84/84
f 39/100/100 25/84/84 21/85/85
f 39/100/100 21/85/85 3/99/99
f 3/99/99 21/85/85 17/86/86
f 3/99/99 17/86/86 13/87/87
f 3/99/99 13/87/87 1/98/98
f 1/98/98 13/87/87 9/88/88
f 1/98/98 9/88/88 7/89/89
f 7/89/89 10/90/90 1/98/98
f 1/98/98 10/90/90 14/91/91
f 1/98/98 14/91/91 5/97/97
f 5/97/97 14/91/91 18/92/92
f 5/97/97 18/92/92 22/93/93
f 5/97/97 22/93/93 41/102/102
f 41/102/102 22/93/93 26/94/94
f 41/102/102 26/94/94 30/95/95
f 41/102/102 30/95/95 43/101/101
f 43/101/101 30/95/95 34/96/96
# 44 vertices
# 102 texture params
# 102 normals
# 84 facets

# 1 groups
